{
    "name": "Update",
    "alias": "update",
    "description": "",
    "keywords": [],
    "order": 0,
    "providers": [
        "Modules\\Update\\Providers\\UpdateServiceProvider"
    ],
    "aliases": {},
    "files": [],
    "requires": []
}
